{
    "version": "1.0.0",
    "summary": "Font Awesome CSS helpers",
    "repository": "https://github.com/Fresheyeball/elm-font-awesome.git",
    "license": "BSD3",
    "source-directories": [
        "."
    ],
    "exposed-modules": [
        "FontAwesome.Web",
        "FontAwesome.Web.Class",
        "FontAwesome.Brand",
        "FontAwesome.Brand.Class"
    ],
    "dependencies": {
        "elm-lang/core": "4.0.1 <= v < 5.0.0",
        "elm-lang/html": "1.0.0 <= v < 2.0.0"
    },
    "elm-version": "0.17.0 <= v < 0.18.0"
}
